{
    "title": "The Secret Fate of All Life",
    "season": 1,
    "episode": 5,
    "directed_by": "Cary Joji Fukunaga",
    "written_by": "Nic Pizzolatto",
    "release_date": "2014-02-15T22:00:00.000Z",
    "storyline": "Hart and Cohle share the spoils of a solved case; Papania and Gilbough confront the detectives with troubling new intelligence.",
    "duration": "57 min",
    "cast": [
        "Matthew McConaughey", "Detective Rust Cohle",
        "Woody Harrelson", "Detective Marty Hart",
        "Michelle Monaghan", "Maggie Hart",
        "Michael Potts", "Detective Maynard Gilbough",
        "Tory Kittles", "Detective Thomas Papania",
        "Kevin Dunn", "Major Ken Quesada",
        "Elizabeth Reaser", "Laurie Spencer",
        "Jackson Beals", "Detective Mark Daughtry",
        "Christopher Berry", "Guy Francis",
        "Joe Chrest", "Detective Demma",
        "J.D. Evermore", "Detective Lutz (as JD Evermore)",
        "Dana Gourrier", "Cathleen",
        "Charles Halford", "Reggie Ledoux",
        "Michael Hartson", "Examiner #2",
        "Jim Klock", "Detective Ted Bertrand",
        "Gretchen Koerner", "Examiner #1",
        "Garrett Kruithof", "Detective Jimmy Dufrene",
        "David Maldonado", "Abbeville Sergeant (as Dave Maldonado)",
        "Harlon Miller", "Video Tech",
        "Tony Molina Jr.", "Detective (as Anthony Molina)",
        "Erin Moriarty", "Audrey Hart",
        "John Neisler", "Abbeville Investigator",
        "Ólafur Darri Ólafsson", "Dewall",
        "Dane Rhodes", "Detective Favre",
        "Terence Rosemore", "Detective",
        "Brighton Sharbino", "Maisie Hart",
        "Joseph Sikora", "Ginger",
        "Madison Wolfe", "Audrey Hart",
        "Meghan Wolfe", "Maisie Hart",
        "Don Yesso", "Commander Speece",
        "John L. Armijo", "Undercover NARC (uncredited)",
        "Lee Burns", "Major Markum (uncredited)",
        "Dylan DePaula", "Kid in Street (uncredited)",
        "Sadarias Harrell", "Detective Drew Stephan (uncredited)",
        "Mike R. Moreau", "Louisiana State Police Colonel (uncredited)"
    ]
}