{
    "title":  "Night Finds You",
    "season": 2,
    "episode": 2,
    "directed_by": "Justin Lin",
    "written_by": "Nic Pizzolatto",
    "release_date": "2015-06-27T21:00:00.000Z",
    "storyline": "Ray, Ani, and Paul are assigned to Casper's murder case. Frank tries to keep his business deals going, even after Casper's death.",
    "duration": "58 min",
    "cast":[
        "Colin Farrell", "Detective Ray Velcoro",
        "Rachel McAdams", "Detective Ani Bezzerides",
        "Taylor Kitsch", "Officer Paul Woodrugh",
        "Kelly Reilly", "Jordan Semyon",
        "Vince Vaughn", "Frank Semyon",
        "Ritchie Coster", "Mayor Austin Chessani",
        "Lolita Davidovich", "Cynthia Woodrugh",
        "W. Earl Brown", "Detective Teague Dixon",
        "Rick Springfield", "Dr. Irving Pitlor",
        "Christopher James Baker", "Blake Churchman",
        "Chris Kerson", "Nails",
        "Ronnie Gene Blevins", "Stan",
        "Andy Mackenzie", "Ivar",
        "Afemo Omilami", "Police Chief Holloway",
        "James Frain", "Lieutenant Kevin Burris",
        "Michael Hyatt", "Katherine Davis",
        "Alex Fernandez", "James O'Neal",
        "Michael Irby", "Detective Elvis Ilinca",
        "Adria Arjona", "Emily",
        "Lera Lynn", "Singer",
        "Yara Martinez", "Felicia",
        "Abigail Spencer", "Gena Brune",
        "Pedro Miguel Arce", "Danny Santos",
        "Matt Battaglia", "Commander Floyd Heschmeyer",
        "C.S. Lee", "Richard Geldof",
        "Jon Lindstrom", "Jacob McCandless",
        "Alain Uy", "Ernst Bodine",
        "Kerry Barker", "Assistant",
        "Weronika Rosati", "Agnes",
        "Jamison Jones", "Will Davidson",
        "Anjul Nigam", "Ventura County Medical Examiner",
        "Gary Carlos Cervantes", "Car Owner",
        "David Pressman", "Vinci Police",
        "Toni M. Youngblood", "Police Tech (as Toni Youngblood)",
        "Doby Daenger", "Hollywood Lowlife (uncredited)",
        "Mandell Frazier", "CHP Officer (uncredited)",
        "Shannon Garnett", "Santos Posse (uncredited)",
        "Suzana Jurcevic", "L.A. Nightclub Patron (uncredited)",
        "Abraham Luna", "Santos Posse (uncredited)",
        "Mike Sakellarides", "Police Officer (uncredited)"
    ]
}