{
    "title": "Church in Ruins",
    "season": 2,
    "episode": 6,
    "directed_by": "Miguel Sapochnik",
    "written_by": ["Nic Pizzolatto", "Scott Lasser"],
    "release_date": "2015-07-25T21:00:00.000Z",
    "storyline": "Desperate to locate a missing woman with intel about Caspere, Frank meets with Mexican drug dealers; Ani infiltrates an exclusive inner circle, with Ray and Paul keeping close tabs.",
    "duration": "59 min",
    "cast":[
        "Colin Farrell", "Detective Ray Velcoro",
        "Rachel McAdams", "Detective Ani Bezzerides",
        "Taylor Kitsch", "Officer Paul Woodrugh",
        "Kelly Reilly", "Jordan Semyon",
        "Vince Vaughn", "Frank Semyon",
        "Christopher James Baker", "Blake Churchman",
        "Chris Kerson", "Nails",
        "Jon Lindstrom", "Jacob McCandless",
        "Michael Hyatt", "Katherine Davis",
        "Afemo Omilami", "Police Chief Holloway",
        "Leven Rambin", "Athena Bezzerides",
        "Abigail Spencer", "Gena Brune",
        "Sprague Grayden", "Joyce",
        "Austin Nash Chase", "Mikey (as Austin Chase)",
        "Josh Clark", "Deiffenbach",
        "Timothy V. Murphy", "Osip Agronov",
        "C.S. Lee", "Richard Geldof",
        "Michael Adler", "Cliggot",
        "Andy Mackenzie", "Ivar",
        "Brett Rice", "Mr. Wyman",
        "Bill Kalmenson", "Sheriff Russo",
        "Trevor Larcom", "Chad Velcoro",
        "Vinicius Machado", "Tony Chessani",
        "Joseph Gatt", "Bogden",
        "Marco Rodríguez", "Gena's Rapist (as Marco Rodriguez)",
        "Bianca Taylor", "Psychologist",
        "Miranda Rae Mayo", "Vera Machiado",
        "Linda DeMetrick", "Madame",
        "Eva Pepaj", "Girl #1",
        "Erin Spencer", "Girl #2",
        "Jamie VanDyke", "Girl #3",
        "Benjamín Benítez", "Gonzales #1 (as Benjamin Benitez)",
        "Robert Renderos", "Gonzales #2",
        "Joshua Chang", "Tech",
        "Rodger Halston", "Hippy",
        "Miguel Izaguirre", "Dealer (as Miguel Izaghirre)",
        "Peter Katona", "Ranger",
        "Bill Blair", "High Roller Client (uncredited)",
        "Ana Flavia Gavlak", "Waitress (uncredited)",
        "Peta Jensen", "Escort (uncredited)",
        "Taryn Jones", "Escort (uncredited)",
        "Erika Jordan", "Escort (uncredited)",
        "Halszka Kuza", "Escort (uncredited)",
        "Barbie B. Lange", "Model (uncredited)",
        "Alix Lynx", "Escort (uncredited)",
        "Anne McDaniels", "Escort (uncredited)",
        "Mariano Mendoza", "Cartel Member (uncredited)",
        "Tatum Miranda", "Escort (uncredited)",
        "Katie O'Malley", "Escort (uncredited)",
        "Diana Terranova", "Escort (uncredited)"
    ]
}