{
    "release_date": "2014-02-11T22:00:00.000Z",
    "episodes": 8,
    "network": "HBO",
    "episodes_titles": [
        "The Long Bright Dark",
        "Seeing Things",
        "The Locked Room",
        "Who Goes There",
        "The Secret Fate of All Life",
        "Haunted Houses",
        "After You've Gone",
        "Form and Void"
    ],
    "storyline": "In 2012, two homicide investigators with the Louisiana State Police's Criminal Investigations Division, Rustin 'Rust' Cohle (McConaughey) and Martin 'Marty' Hart (Harrelson), are summoned for questioning by detectives Maynard Gilbough (Potts) and Thomas Papania (Kittles), about the Dora Lange murder investigation of 1995; they have not seen nor spoken to each other since an altercation concerning Martin's wife Maggie Hart (Monaghan) over a decade prior. With many of the old files destroyed in Hurricane Rita, the two men are asked to recount the history of their working relationship, personal lives, and the Dora Lange murder investigation, as well as a series of other related individual cases as new evidence suggests that the perpetrator remains at large.",
    "directed_by": "Cary Joji Fukunaga"
}